<svg version="1.1" viewBox="0 0 150 34" xmlns="http://www.w3.org/2000/svg">
 <g transform="translate(-74.5 10.906)">
  <text x="-196.675" y="-31.954165" style="fill:#000000;font-family:sans-serif;font-size:11.906px;letter-spacing:0px;line-height:125%;stroke-width:.26458px;text-align:center;text-anchor:middle;word-spacing:0px" xml:space="preserve"><tspan x="-196.675" y="-31.954165" style="font-family:sans-serif;font-feature-settings:normal;font-size:11.906px;font-variant-caps:normal;font-variant-ligatures:normal;font-variant-numeric:normal;stroke-width:.26458px;text-align:start;text-anchor:start">Maße DF:</tspan><tspan x="-196.675" y="-17.071352" style="font-family:sans-serif;font-feature-settings:normal;font-size:11.906px;font-variant-caps:normal;font-variant-ligatures:normal;font-variant-numeric:normal;stroke-width:.26458px;text-align:start;text-anchor:start">* Radkasten 50 cm Durchmesser</tspan><tspan x="-196.675" y="-2.1885395" style="font-family:sans-serif;font-feature-settings:normal;font-size:11.906px;font-variant-caps:normal;font-variant-ligatures:normal;font-variant-numeric:normal;stroke-width:.26458px;text-align:start;text-anchor:start">* Radkasten 10 cm tief (außen)</tspan><tspan x="-196.675" y="12.694273" style="font-family:sans-serif;font-feature-settings:normal;font-size:11.906px;font-variant-caps:normal;font-variant-ligatures:normal;font-variant-numeric:normal;stroke-width:.26458px;text-align:start;text-anchor:start">* Querlenker ca. 26 cm lang</tspan><tspan x="-196.675" y="27.577085" style="font-family:sans-serif;font-feature-settings:normal;font-size:11.906px;font-variant-caps:normal;font-variant-ligatures:normal;font-variant-numeric:normal;stroke-width:.26458px;text-align:start;text-anchor:start">* Längslenker ca. 14 cm lang</tspan><tspan x="-196.675" y="42.4599" style="font-family:sans-serif;font-feature-settings:normal;font-size:11.906px;font-variant-caps:normal;font-variant-ligatures:normal;font-variant-numeric:normal;stroke-width:.26458px;text-align:start;text-anchor:start">* Abstand Längs/Querlenker 7 cm</tspan><tspan x="-196.675" y="57.342712" style="font-family:sans-serif;font-feature-settings:normal;font-size:11.906px;font-variant-caps:normal;font-variant-ligatures:normal;font-variant-numeric:normal;stroke-width:.26458px;text-align:start;text-anchor:start">* Abstand Achse/Querlenker 2 cm</tspan><tspan x="-196.675" y="72.225525" style="font-family:sans-serif;font-feature-settings:normal;font-size:11.906px;font-variant-caps:normal;font-variant-ligatures:normal;font-variant-numeric:normal;stroke-width:.26458px;text-align:start;text-anchor:start">* Abstand Spurstange/Achse 8 cm</tspan><tspan x="-196.675" y="87.108337" style="font-family:sans-serif;font-feature-settings:normal;font-size:11.906px;font-variant-caps:normal;font-variant-ligatures:normal;font-variant-numeric:normal;stroke-width:.26458px;text-align:start;text-anchor:start">* Tiefe Längslenker im Radkasten 5cm</tspan></text>
  <g transform="translate(-20.008)">
   <path d="m256.73-8v34.57h-186.73v-34.57l5-2.9e-6 35 2.9e-6c2.77 1e-5 4.9195 2.2312 5 5v15c.0258 2.7699 2.23 4.9901 5 5h100c2.77.0061 5-2.23 5-5v-15c0-2.77 2.23-5 5-5h20z" style="fill:#7f7f7f;stroke-linecap:square;stroke-width:.5;stroke:#000"/>
   <g style="stroke:#fc8000">
    <path d="m170 2.4303v-7.5" style="fill:none;stroke-width:3;stroke:#fc8000"/>
    <path d="m175 2.4303 17.411 4e-7" style="fill:none;stroke-width:3;stroke:#fc8000"/>
    <path d="m150 2.4303h25" style="fill:none;stroke-width:3;stroke:#fc8000"/>
   </g>
   <path d="m122.5-5.0697h95" style="fill:none;stroke-linecap:round;stroke-width:5;stroke:#000"/>
   <path d="m150 67.43v-65" style="fill:none;stroke:#ff0500"/>
   <g transform="rotate(-9.8407 198.63 17.046)">
    <path d="m195 1.5831 30.167 17.747" style="fill:none;stroke:#008000"/>
    <path d="m190.4 15.314a35 35 0 0 1 15.27-25.049" style="fill:none;paint-order:normal;stroke-dasharray:1.00000003, 2.00000006;stroke-linejoin:bevel;stroke:#008000"/>
   </g>
   <g transform="translate(-2.942 .84722)">
    <path d="m177.94 66.583v-65" style="fill:none;stroke:#0005ff"/>
    <path d="m137.95 15.842a65 65 0 0 1 78.785-.91396" style="fill:none;paint-order:normal;stroke-dasharray:1.00000003, 2.00000006;stroke-linejoin:bevel;stroke:#0005ff"/>
   </g>
  </g>
 </g>
</svg>
